Trends in Hiring using LinkedIn Data 2015-2019
…
# Remove & and combine fields
dat <- dat %>%
  mutate(
    industry = str_replace_all(industry, "&", "and"),
    industry = str_replace_all(industry, "amp;", "")
  )
# table(dat$industry)

# Which industries are best represented in the dataset?
## 1. Basic: Display count by industry
dat %>% 
  count(industry, sort = T, name = "industry_total")

## # A tibble: 124 x 2
##    industry                            industry_total
##    <chr>                                        <int>
##  1 Banking                                     168364
##  2 Biotechnology                               152710
##  3 Financial Services                          148143
##  4 Oil and Energy                              123108
##  5 Retail                                       95384
##  6 Pharmaceuticals                              92107
##  7 Information Technology and Services          85066
##  8 Computer Software                            83214
##  9 Real Estate                                  81195
## 10 Internet                                     75450
## #  with 114 more rows
…
